Transformação de dados com dplyr – Pesquisa Quantitativa
…
Exercício 1

Considere a coluna intitulada reported_date_time_utc e filtre as linhas para todos os avistamentos ocorridos após 10 de setembro de 19931.

Conte o número de avistamentos de ovnis com formato chevron por cada estado dos EUA (US) e classifique em ordem decrescente.

Qual o número de avistamentos do segundo estado dos EUA com maior número de aparições de ovnis com formato chevron?

ufo |> 
  filter(reported_date_time_utc > ymd("1993-9-10"),
         country_code == "US",
         shape == "chevron") |> 
  count(state, sort = T)
#> # A tibble: 51 × 2
#>   state     n
#>   <chr> <int>
#> 1 CA      173
#> 2 FL       84
#> 3 TX       65
#> 4 CO       56
#> 5 WA       55
#> 6 IL       38
#> # ℹ 45 more rows
…
Os avistamentos ocorrem em diversos estados dos EUA. Qual o tempo médio de duração (em horas) do estado que mais tem avistamentos de objetos com o formato cigar?

ufo |> 
  mutate(
    dur_horas = duration_seconds/3600
  ) |>
  filter(country_code == "US",
         shape == "cigar") |>
  summarise(
    n = n(), M = mean(dur_horas),
    .by = state
  ) |> 
  arrange(desc(n))
#> # A tibble: 51 × 3
#>   state     n     M
#>   <chr> <int> <dbl>
#> 1 CA      250  2.39
#> 2 FL      146  1.74
#> 3 TX      119  2.91
#> 4 NY      109  2.63
#> 5 WA       90  1.13
#> 6 PA       88  2.95
#> # ℹ 45 more rows

Resposta: 2,39 horas

Exercício 3

Em qual parte do dia os avistamentos tem maior tempo de duração médio?

ufo |> 
  drop_na(day_part) |> 
  summarise(
    M = (mean(duration_seconds, na.rm = T)),
    .by = day_part
  ) |> 
  arrange(desc(M))
#> # A tibble: 9 × 2
#>   day_part           M
#>   <chr>          <dbl>
#> 1 night         12941.
#> 2 morning       11030.
#> 3 civil dusk     9599.
#> 4 afternoon      9586.
#> 5 civil dawn     9017.
#> 6 nautical dawn  8319.
#> # ℹ 3 more rows

Resposta: night (noite)

Exercício 4

Qual o ano com maior número de avistamentos nos EUA?

ufo |> 
  filter(country_code == "US") |> 
  mutate(
    ano = year(reported_date_time_utc)
  ) |> 
  count(ano, sort = T)
#> # A tibble: 92 × 2
#>     ano     n
#>   <dbl> <int>
#> 1  2014  6480
#> 2  2012  5679
#> 3  2013  5668
#> 4  2015  5055
#> 5  2020  4417
#> 6  2016  4178
#> # ℹ 86 more rows

Resposta: 2014

Exercício 5

Qual a quinta cidade dos EUA com o maior número de avistamentos? Em qual estado ela fica localizada?

ufo |> 
  filter(country_code == "US") |> 
  count(state, city, sort = T)
#> # A tibble: 12,064 × 3
#>   state city              n
#>   <chr> <chr>         <int>
#> 1 NY    New York City   667
#> 2 WA    Seattle         666
#> 3 AZ    Phoenix         628
#> 4 NV    Las Vegas       546
#> 5 CA    Los Angeles     518
#> 6 OR    Portland        488
#> # ℹ 12,058 more rows
…
Em qual ano houve o maior número de pessoas feridas em decorrência de desastres naturais nos Estados Unidos? Qual tipo de evento que causou esses ferimentos?

eventos |> 
  summarise(
    total_de_ferimentos = sum(injuries),
    .by = c(year, evtype)
  ) |> 
  arrange(desc(total_de_ferimentos))
#> # A tibble: 374 × 3
#>    year evtype  total_de_ferimentos
#>   <dbl> <chr>                 <dbl>
#> 1  1974 Tornado                6824
#> 2  1998 Flood                  6439
#> 3  2011 Tornado                6163
#> 4  1965 Tornado                5197
#> 5  1953 Tornado                5131
#> 6  1979 Tornado                3014
#> # ℹ 368 more rows

Resposta: Tornados em 1974

Exercício 7

Em qual ano houve o maior número de fatalidades em decorrência de desastres naturais nos Estados Unidos? Qual tipo de evento causou essas mortes?

eventos |> 
  summarise(
    total_de_fatalidades = sum(fatalities),
    .by = c(year, evtype)
  ) |> 
  arrange(desc(total_de_fatalidades))
#> # A tibble: 374 × 3
#>    year evtype         total_de_fatalidades
#>   <dbl> <chr>                         <dbl>
#> 1  1995 Excessive heat                 1051
#> 2  2011 Tornado                         587
#> 3  1953 Tornado                         519
#> 4  1999 Excessive heat                  502
#> 5  1974 Tornado                         366
#> 6  1965 Tornado                         301
#> # ℹ 368 more rows

Resposta: Calor excessivo (excessive heat) em 1995

Exercício 8

Qual evento levou ao maior número de pessoas feridas nos EUA?

eventos |>
  summarise(
    total_de_ferimentos = sum(injuries),
    .by = evtype
  ) |> 
  arrange(desc(total_de_ferimentos))
#> # A tibble: 14 × 2
#>   evtype         total_de_ferimentos
#>   <chr>                        <dbl>
#> 1 Tornado                      91407
#> 2 Thunderstorm                 13756
#> 3 Excessive heat                9154
#> 4 Flood                         8601
#> 5 Lightning                     5231
#> 6 Winter weather                2971
#> # ℹ 8 more rows

Resposta: Tornados

Exercício 9

Qual evento, em média, levou ao maior número de pessoas feridas nos EUA?

eventos |> 
  summarise(
    media_de_ferimentos = mean(injuries),
    .by = evtype
  ) |> 
  arrange(desc(media_de_ferimentos))
#> # A tibble: 14 × 2
#>   evtype         media_de_ferimentos
#>   <chr>                        <dbl>
#> 1 Hurricane                    4.65 
#> 2 Excessive heat               3.46 
#> 3 Tornado                      1.51 
#> 4 Rip current                  0.681
#> 5 Fog                          0.573
#> 6 Avalanche                    0.440
#> # ℹ 8 more rows

Resposta: Furacões (Hurricane)

Exercício 10

Qual evento causou o maior número de fatalidades nos EUA?

eventos |> 
  summarise(
    total_de_fatalidades = sum(fatalities),
    .by = evtype
  ) |> 
  arrange(desc(total_de_fatalidades))
#> # A tibble: 14 × 2
#>   evtype         total_de_fatalidades
#>   <chr>                         <dbl>
#> 1 Tornado                        5636
#> 2 Excessive heat                 3138
#> 3 Flood                          1523
#> 4 Thunderstorm                   1177
#> 5 Others                          907
#> 6 Lightning                       817
#> # ℹ 8 more rows

Resposta: Tornados

Exercício 11

Qual evento, em média, levou ao maior número de fatalidades nos EUA?

eventos |> 
  summarise(
    media_de_fatalidades = mean(fatalities),
    .by = evtype
  ) |> 
  arrange(desc(media_de_fatalidades))
#> # A tibble: 14 × 2
#>   evtype         media_de_fatalidades
#>   <chr>                         <dbl>
#> 1 Excessive heat               1.19  
#> 2 Rip current                  0.743 
#> 3 Avalanche                    0.580 
#> 4 Hurricane                    0.467 
#> 5 Tornado                      0.0929
#> 6 Lightning                    0.0518
#> # ℹ 8 more rows

Resposta: Calor excessivo (Excessive heat)

Exercício 12

Qual estado tem, em média, o maior prejuízo a plantações causado por desastres naturais nos EUA?

eventos |> 
  summarise(
    media_platacoes = mean(cropdmg),
    .by = c(state, evtype)
  ) |> 
  arrange(desc(media_platacoes))
#> # A tibble: 668 × 3
#>   state evtype    media_platacoes
#>   <chr> <chr>               <dbl>
#> 1 MS    Hurricane       84165600 
#> 2 NC    Hurricane       33877442.
#> 3 PR    Hurricane       21476190.
#> 4 FL    Hurricane       20988551.
#> 5 LA    Hurricane       14028571.
#> 6 VA    Hurricane        6670000 
#> # ℹ 662 more rows

Resposta: MS (Mississippi)

Exercício 13

Qual estado tem, em média, o maior prejuízo a propriedades causado por desastres naturais nos EUA?

eventos |> 
  summarise(
    media_propriedades = mean(propdmg),
    .by = c(state, evtype)
  ) |> 
  arrange(desc(media_propriedades))
#> # A tibble: 668 × 3
#>   state evtype    media_propriedades
#>   <chr> <chr>                  <dbl>
#> 1 LA    Hurricane         789765071.
#> 2 MS    Hurricane         787672223.
#> 3 FL    Hurricane         460789797.
#> 4 AL    Hurricane         282096071.
#> 5 TX    Hurricane         218060000 
#> 6 NC    Hurricane         129526070.
#> # ℹ 662 more rows
…
Resposta: M = 10,4; DP = 1.74; MAX = 13 e MIN = 8

Exercício 18

Quais são as três espécies com o maior número de personagens no banco de dados? Apresente os resultados em ordem decrescente de contagem.

starwars |> 
  count(species, sort = T)
#> # A tibble: 38 × 2
#>   species      n
#>   <chr>    <int>
#> 1 Human       35
#> 2 Droid        6
#> 3 <NA>         4
#> 4 Gungan       3
#> 5 Kaminoan     2
#> 6 Mirialan     2
#> # ℹ 32 more rows
…
Calcule a altura média, a massa média e o desvio padrão da massa para cada espécie, considerando apenas as espécies com pelo menos dois personagens. Ordene os resultados pela altura média em ordem decrescente.

starwars |> 
  drop_na(species) |> 
  group_by(species) |> 
  filter(n() >= 2) |> 
 summarise(
    altura_media = mean(height, na.rm = T),
    massa_media = mean(mass, na.rm = T),
    dp_massa = sd(mass, na.rm = T),
    n = n()
  ) %>%
  arrange(desc(altura_media))
#> # A tibble: 8 × 5
#>   species  altura_media massa_media dp_massa     n
#>   <chr>           <dbl>       <dbl>    <dbl> <int>
#> 1 Wookiee          231        124       17.0     2
#> 2 Kaminoan         221         88       NA       2
#> 3 Gungan           209.        74       11.3     3
#> 4 Twi'lek          179         55       NA       2
#> 5 Human            178         81.3     19.3    35
#> 6 Zabrak           173         80       NA       2
#> # ℹ 2 more rows

Exercício 20

Qual é o nome do personagem mais alto da espécie “Human”?

starwars |> 
  filter(species == "Human") |> 
  arrange(desc(height))
#> # A tibble: 35 × 14
#>   name                height  mass hair_color skin_color eye_color birth_year
#>   <chr>                <int> <dbl> <chr>      <chr>      <chr>          <dbl>
#> 1 Darth Vader            202   136 none       white      yellow          41.9
#> 2 Qui-Gon Jinn           193    89 brown      fair       blue            92  
#> 3 Dooku                  193    80 white      fair       brown          102  
#> 4 Bail Prestor Organa    191    NA black      tan        brown           67  
#> 5 Anakin Skywalker       188    84 blond      fair       blue            41.9
#> 6 Mace Windu             188    84 none       dark       brown           72  
#> # ℹ 29 more rows
#> # ℹ 7 more variables: sex <chr>, gender <chr>, homeworld <chr>, …
…
Crie uma nova coluna chamada imc (Índice de Massa Corporal) para cada personagem, calculada pela fórmula:

\[
\text{imc} = \frac{\text{massa}}{\left( \dfrac{\text{altura}}{100} \right)^2}
\]

starwars <- starwars |> 
  mutate(
    imc = mass/((height/100)^2),
    .after = mass
  )

starwars
#> # A tibble: 87 × 15
#>   name           height  mass   imc hair_color  skin_color  eye_color
#>   <chr>           <int> <dbl> <dbl> <chr>       <chr>       <chr>    
#> 1 Luke Skywalker    172    77  26.0 blond       fair        blue     
#> 2 C-3PO             167    75  26.9 <NA>        gold        yellow   
#> 3 R2-D2              96    32  34.7 <NA>        white, blue red      
#> 4 Darth Vader       202   136  33.3 none        white       yellow   
#> 5 Leia Organa       150    49  21.8 brown       light       brown    
#> 6 Owen Lars         178   120  37.9 brown, grey light       blue     
#> # ℹ 81 more rows
#> # ℹ 8 more variables: birth_year <dbl>, sex <chr>, gender <chr>, …
…
Exercício 25

Entre os personagens com categoria de IMC “Obesidade”, quais são as duas espécies mais comuns? Apresente a contagem de personagens obesos por espécie.

starwars |> 
  filter(categoria_imc == "Obesidade") |> 
  count(species, sort = T)
#> # A tibble: 9 × 2
#>   species        n
#>   <chr>      <int>
#> 1 Droid          3
#> 2 Human          2
#> 3 Dug            1
#> 4 Hutt           1
#> 5 Kaleesh        1
#> 6 Trandoshan     1
#> # ℹ 3 more rows
…
