Pesquisa Quantitativa – Inferência
…
dados_teste_t
#> # A tibble: 32 × 3
#>   modelo              mpg vs   
#>   <chr>             <dbl> <fct>
#> 1 Mazda RX4          21   V    
#> 2 Mazda RX4 Wag      21   V    
#> 3 Datsun 710         22.8 reto 
#> 4 Hornet 4 Drive     21.4 reto 
#> 5 Hornet Sportabout  18.7 V    
#> 6 Valiant            18.1 reto 
#> # ℹ 26 more rows
…
dados_teste_t
#> # A tibble: 18 × 3
#>   modelo           mpg cyl  
#>   <chr>          <dbl> <fct>
#> 1 Mazda RX4       21   6    
#> 2 Mazda RX4 Wag   21   6    
#> 3 Datsun 710      22.8 4    
#> 4 Hornet 4 Drive  21.4 6    
#> 5 Valiant         18.1 6    
#> 6 Merc 240D       24.4 4    
#> # ℹ 12 more rows
…
