Pesquisa Quantitativa – Inferência
…
1

Converter os rótulos das linhas

2

Transformar em tibble

3

Selecionar as variáveis

dados_correlacao
#> # A tibble: 32 × 4
#>   modelo              mpg    wt  drat
#>   <chr>             <dbl> <dbl> <dbl>
#> 1 Mazda RX4          21    2.62  3.9 
#> 2 Mazda RX4 Wag      21    2.88  3.9 
#> 3 Datsun 710         22.8  2.32  3.85
#> 4 Hornet 4 Drive     21.4  3.22  3.08
#> 5 Hornet Sportabout  18.7  3.44  3.15
#> 6 Valiant            18.1  3.46  2.76
#> # ℹ 26 more rows
…
Transformação dos dados
mpg
wt
drat

dados_correlacao <- dados_correlacao |> 
  mutate(
    z_mpg = scale(mpg) |> as.double(),
    z_wt = scale(wt) |> as.double(),
    z_drat = scale(drat) |> as.double()
  )

dados_correlacao
#> # A tibble: 32 × 7
#>   modelo              mpg    wt  drat  z_mpg     z_wt z_drat
#>   <chr>             <dbl> <dbl> <dbl>  <dbl>    <dbl>  <dbl>
#> 1 Mazda RX4          21    2.62  3.9   0.151 -0.610    0.568
#> 2 Mazda RX4 Wag      21    2.88  3.9   0.151 -0.350    0.568
#> 3 Datsun 710         22.8  2.32  3.85  0.450 -0.917    0.474
#> 4 Hornet 4 Drive     21.4  3.22  3.08  0.217 -0.00230 -0.966
#> 5 Hornet Sportabout  18.7  3.44  3.15 -0.231  0.228   -0.835
#> 6 Valiant            18.1  3.46  2.76 -0.330  0.248   -1.56 
#> # ℹ 26 more rows
…
