Pesquisa Quantitativa – Análise Fatorial Exploratória
…
Respostas descuidadas

longstring()
Filtragem dos casos
Avaliação dos casos

respostas_descuidadas <- longstring(escala_de_racismo, avg = T) |> 
  as_tibble() |> 
  mutate(
    id = 1:n(), .before = 1
  ) |> 
  arrange(desc(longstr)) 

respostas_descuidadas
#> # A tibble: 320 × 3
#>      id longstr avgstr
#>   <int>   <dbl>  <dbl>
#> 1     2      14     14
#> 2     8      14     14
#> 3    11      14     14
#> 4    26      14     14
#> 5    39      14     14
#> 6    45      14     14
#> # ℹ 314 more rows
…
