Introdução ao R – Pesquisa Quantitativa
…
mutate()

air_time: quantidade de tempo gasta no ar, em minutos

air_time_horas: air_time/60

flights |> 
  mutate(
    air_time_horas = air_time/60
    )
#> # A tibble: 336,776 × 20
#>    year month   day dep_time sched_dep_time dep_delay arr_time sched_arr_time
#>   <int> <int> <int>    <int>          <int>     <dbl>    <int>          <int>
#> 1  2013     1     1      517            515         2      830            819
#> 2  2013     1     1      533            529         4      850            830
#> 3  2013     1     1      542            540         2      923            850
#> 4  2013     1     1      544            545        -1     1004           1022
#> 5  2013     1     1      554            600        -6      812            837
#> 6  2013     1     1      554            558        -4      740            728
#> # ℹ 336,770 more rows
#> # ℹ 12 more variables: arr_delay <dbl>, carrier <chr>, flight <int>, …
…
.before (“antes”) e .after (“depois”) para indicar onde a variável deve ficar

mutate()

É possível usar um número ou o nome da coluna para indicar a posição

Número
Nome da coluna

flights |> 
  mutate(
    air_time_horas = air_time/60,
    .before = 1
    )
#> # A tibble: 336,776 × 20
#>   air_time_horas  year month   day dep_time sched_dep_time dep_delay arr_time
#>            <dbl> <int> <int> <int>    <int>          <int>     <dbl>    <int>
#> 1           3.78  2013     1     1      517            515         2      830
#> 2           3.78  2013     1     1      533            529         4      850
#> 3           2.67  2013     1     1      542            540         2      923
#> 4           3.05  2013     1     1      544            545        -1     1004
#> 5           1.93  2013     1     1      554            600        -6      812
#> 6           2.5   2013     1     1      554            558        -4      740
#> # ℹ 336,770 more rows
#> # ℹ 12 more variables: sched_arr_time <int>, arr_delay <dbl>, …

flights |> 
  mutate(
    air_time_horas = air_time/60,
    .after = year
    )
#> # A tibble: 336,776 × 20
#>    year air_time_horas month   day dep_time sched_dep_time dep_delay arr_time
#>   <int>          <dbl> <int> <int>    <int>          <int>     <dbl>    <int>
#> 1  2013           3.78     1     1      517            515         2      830
#> 2  2013           3.78     1     1      533            529         4      850
#> 3  2013           2.67     1     1      542            540         2      923
#> 4  2013           3.05     1     1      544            545        -1     1004
#> 5  2013           1.93     1     1      554            600        -6      812
#> 6  2013           2.5      1     1      554            558        -4      740
#> # ℹ 336,770 more rows
#> # ℹ 12 more variables: sched_arr_time <int>, arr_delay <dbl>, …
…
"unused" retém apenas as colunas não usadas

"none" não retém nenhuma coluna extra de .data. Apenas as variáveis de agrupamento e as colunas criadas são mantidas.

mutate()

“used”
“none”

flights |> 
  mutate(
    air_time_horas = air_time/60,
    .keep = "used"
    )
#> # A tibble: 336,776 × 2
#>   air_time air_time_horas
#>      <dbl>          <dbl>
#> 1      227           3.78
#> 2      227           3.78
#> 3      160           2.67
#> 4      183           3.05
#> 5      116           1.93
#> 6      150           2.5 
#> # ℹ 336,770 more rows

flights |> 
  mutate(
    air_time_horas = air_time/60,
    .keep = "none"
    )
#> # A tibble: 336,776 × 1
#>   air_time_horas
#>            <dbl>
#> 1           3.78
#> 2           3.78
#> 3           2.67
#> 4           3.05
#> 5           1.93
#> 6           2.5 
#> # ℹ 336,770 more rows
…
air_time_horas <- flights |> 
  mutate(
    air_time_horas = air_time/60,
    .keep = "none"
    )

air_time_horas
#> # A tibble: 336,776 × 1
#>   air_time_horas
#>            <dbl>
#> 1           3.78
#> 2           3.78
#> 3           2.67
#> 4           3.05
#> 5           1.93
#> 6           2.5 
#> # ℹ 336,770 more rows
Exercícios

−+

02:00

Crie uma coluna (variável) chamada consumo_percapita que calcule a relação entre os gastos de consumo pessoal (pce) e a população (pop).

Resposta

economics |> 
  mutate(
    consumo_percapita = pce/pop
    )
#> # A tibble: 574 × 7
#>   date         pce    pop psavert uempmed unemploy consumo_percapita
#>   <date>     <dbl>  <dbl>   <dbl>   <dbl>    <dbl>             <dbl>
#> 1 1967-07-01  507. 198712    12.6     4.5     2944           0.00255
#> 2 1967-08-01  510. 198911    12.6     4.7     2945           0.00256
#> 3 1967-09-01  516. 199113    11.9     4.6     2958           0.00259
#> 4 1967-10-01  512. 199311    12.9     4.9     3143           0.00257
#> 5 1967-11-01  517. 199498    12.8     4.7     3066           0.00259
#> 6 1967-12-01  525. 199657    11.8     4.8     3018           0.00263
#> # ℹ 568 more rows
Exercícios

−+

02:00

Crie uma variável chamada des_hab a taxa de desempregados (unemploy) por habitante (pop)

Resposta

economics |> 
  mutate(
    des_hab = unemploy/pop
  )
#> # A tibble: 574 × 7
#>   date         pce    pop psavert uempmed unemploy des_hab
#>   <date>     <dbl>  <dbl>   <dbl>   <dbl>    <dbl>   <dbl>
#> 1 1967-07-01  507. 198712    12.6     4.5     2944  0.0148
#> 2 1967-08-01  510. 198911    12.6     4.7     2945  0.0148
#> 3 1967-09-01  516. 199113    11.9     4.6     2958  0.0149
#> 4 1967-10-01  512. 199311    12.9     4.9     3143  0.0158
#> 5 1967-11-01  517. 199498    12.8     4.7     3066  0.0154
#> 6 1967-12-01  525. 199657    11.8     4.8     3018  0.0151
#> # ℹ 568 more rows
…
Salve em um objeto chamado des_hab_2008 somente a variável des_hab criada anteriormente, mas queremos apenas os dados referentes ao ano de 2008.

Você pude usar a função (year) para transmformar variável date em ano!

Lembre que o operador de atribuição (<-) é utilizado para salvar objetos

Recorde o que aprendemos com a função filter()

Resposta - parte 1

economics |> 
  mutate(
    date = year(date)
    )  
#> # A tibble: 574 × 6
#>    date   pce    pop psavert uempmed unemploy
#>   <dbl> <dbl>  <dbl>   <dbl>   <dbl>    <dbl>
#> 1  1967  507. 198712    12.6     4.5     2944
#> 2  1967  510. 198911    12.6     4.7     2945
#> 3  1967  516. 199113    11.9     4.6     2958
#> 4  1967  512. 199311    12.9     4.9     3143
#> 5  1967  517. 199498    12.8     4.7     3066
#> 6  1967  525. 199657    11.8     4.8     3018
#> # ℹ 568 more rows

Resposta - parte 2

economics |> 
  mutate(
    date = year(date),
    des_hab = unemploy/pop
    )
#> # A tibble: 574 × 7
#>    date   pce    pop psavert uempmed unemploy des_hab
#>   <dbl> <dbl>  <dbl>   <dbl>   <dbl>    <dbl>   <dbl>
#> 1  1967  507. 198712    12.6     4.5     2944  0.0148
#> 2  1967  510. 198911    12.6     4.7     2945  0.0148
#> 3  1967  516. 199113    11.9     4.6     2958  0.0149
#> 4  1967  512. 199311    12.9     4.9     3143  0.0158
#> 5  1967  517. 199498    12.8     4.7     3066  0.0154
#> 6  1967  525. 199657    11.8     4.8     3018  0.0151
#> # ℹ 568 more rows

Resposta - parte 3

economics |> 
  mutate(
    date = year(date),
    des_hab = unemploy/pop,
    .keep = "none"
    )
#> # A tibble: 574 × 2
#>    date des_hab
#>   <dbl>   <dbl>
#> 1  1967  0.0148
#> 2  1967  0.0148
#> 3  1967  0.0149
#> 4  1967  0.0158
#> 5  1967  0.0154
#> 6  1967  0.0151
#> # ℹ 568 more rows

Resposta - parte 4

economics |> 
  mutate(
    date = year(date),
    des_hab = unemploy/pop,
    .keep = "none"
    ) |>
  filter(date == 2008)
#> # A tibble: 12 × 2
#>    date des_hab
#>   <dbl>   <dbl>
#> 1  2008  0.0253
#> 2  2008  0.0247
#> 3  2008  0.0257
#> 4  2008  0.0251
#> 5  2008  0.0276
#> 6  2008  0.0282
#> # ℹ 6 more rows

Resposta - parte 5

des_hab_2008 <- economics |> 
  mutate(
    date = year(date),
    des_hab = unemploy/pop,
    .keep = "none"
    ) |>
  filter(date == 2008)

des_hab_2008
#> # A tibble: 12 × 2
#>    date des_hab
#>   <dbl>   <dbl>
#> 1  2008  0.0253
#> 2  2008  0.0247
#> 3  2008  0.0257
#> 4  2008  0.0251
#> 5  2008  0.0276
#> 6  2008  0.0282
#> # ℹ 6 more rows
…
21
Senti que a vida não tinha sentido.

Criação da variável depressao

dass_simulado |>
  rowwise() |> 
  mutate(
    depressao = sum(c(dass_3,dass_5,dass_10,
                      dass_13,dass_16,dass_17,
                      dass_21)),
    .keep = "none"
    ) |> 
  ungroup()
#> # A tibble: 100 × 1
#>   depressao
#>       <dbl>
#> 1         8
#> 2        15
#> 3         8
#> 4        10
#> 5        16
#> 6        13
#> # ℹ 94 more rows
…
Criação da variável depressao

Sem rowwise()
Com rowwise()

dass_simulado |>
  #rowwise() |> 
  mutate(
    depressao = sum(c(dass_3,dass_5,dass_10,
                      dass_13,dass_16,dass_17,
                      dass_21)),
    .keep = "none"
    ) |> 
  ungroup()
#> # A tibble: 100 × 1
#>   depressao
#>       <dbl>
#> 1      1072
#> 2      1072
#> 3      1072
#> 4      1072
#> 5      1072
#> 6      1072
#> # ℹ 94 more rows

dass_simulado |>
  rowwise() |> 
  mutate(
    depressao = sum(c(dass_3,dass_5,dass_10,
                      dass_13,dass_16,dass_17,
                      dass_21)),
    .keep = "none"
    ) |> 
  ungroup()
#> # A tibble: 100 × 1
#>   depressao
#>       <dbl>
#> 1         8
#> 2        15
#> 3         8
#> 4        10
#> 5        16
#> 6        13
#> # ℹ 94 more rows
…
Resposta

dass_simulado <- dass_simulado |> 
  rowwise() |> 
  mutate(
    depressao = sum(c(dass_3,dass_5,dass_10,
                      dass_13,dass_16,dass_17,
                      dass_21)),
    .before = 1
    ) |> 
  ungroup()

dass_simulado
#> # A tibble: 100 × 24
#>   depressao dass_1 dass_2 dass_3 dass_4 dass_5 dass_6 dass_7 dass_8 dass_9
#>       <dbl>  <dbl>  <dbl>  <dbl>  <dbl>  <dbl>  <dbl>  <dbl>  <dbl>  <dbl>
#> 1         8      0      0      0      1      2      2      0      1      2
#> 2        15      0      0      3      3      1      3      0      0      3
#> 3         8      0      3      0      3      2      2      3      3      2
#> 4        10      1      1      1      3      2      1      2      3      0
#> 5        16      1      1      3      0      1      0      0      1      1
#> 6        13      2      3      3      3      2      2      2      0      0
#> # ℹ 94 more rows
#> # ℹ 14 more variables: dass_10 <dbl>, dass_11 <dbl>, dass_12 <dbl>, …
…
Resposta

dass_simulado <- dass_simulado |> 
  rowwise() |> 
  mutate(
    ansiedade = sum(c(dass_2,dass_4,dass_7,
                      dass_9,dass_15,dass_19,
                      dass_20)),
    .after = depressao
    ) |> 
  ungroup()

dass_simulado
#> # A tibble: 100 × 25
#>   depressao ansiedade dass_1 dass_2 dass_3 dass_4 dass_5 dass_6 dass_7 dass_8
#>       <dbl>     <dbl>  <dbl>  <dbl>  <dbl>  <dbl>  <dbl>  <dbl>  <dbl>  <dbl>
#> 1         8         6      0      0      0      1      2      2      0      1
#> 2        15        11      0      0      3      3      1      3      0      0
#> 3         8        17      0      3      0      3      2      2      3      3
#> 4        10        13      1      1      1      3      2      1      2      3
#> 5        16         5      1      1      3      0      1      0      0      1
#> 6        13        10      2      3      3      3      2      2      2      0
#> # ℹ 94 more rows
#> # ℹ 15 more variables: dass_9 <dbl>, dass_10 <dbl>, dass_11 <dbl>, …
…
Resposta

dass_simulado <- dass_simulado |> 
  rowwise() |> 
  mutate(
    estresse = sum(dass_1,dass_6,dass_8,
                   dass_11,dass_12,dass_14,
                   dass_18),
    .after = ansiedade
    ) |> 
  ungroup()

dass_simulado
#> # A tibble: 100 × 26
#>   depressao ansiedade estresse dass_1 dass_2 dass_3 dass_4 dass_5 dass_6
#>       <dbl>     <dbl>    <dbl>  <dbl>  <dbl>  <dbl>  <dbl>  <dbl>  <dbl>
#> 1         8         6       12      0      0      0      1      2      2
#> 2        15        11        8      0      0      3      3      1      3
#> 3         8        17       13      0      3      0      3      2      2
#> 4        10        13       13      1      1      1      3      2      1
#> 5        16         5       12      1      1      3      0      1      0
#> 6        13        10        6      2      3      3      3      2      2
#> # ℹ 94 more rows
#> # ℹ 17 more variables: dass_7 <dbl>, dass_8 <dbl>, dass_9 <dbl>, …
…
Uma olhada em dass_simulado_seq

depressão - d1:d7

ansiedade - a1:a7

estresse - e1:e7

dass_simulado_seq
#> # A tibble: 100 × 23
#>      d1    d2    d3    d4    d5    d6    d7    a1    a2    a3    a4    a5
#>   <dbl> <dbl> <dbl> <dbl> <dbl> <dbl> <dbl> <dbl> <dbl> <dbl> <dbl> <dbl>
#> 1     0     2     0     1     3     1     1     0     1     0     2     0
#> 2     3     1     1     3     1     3     3     0     3     0     3     1
#> 3     0     2     1     2     2     0     1     3     3     3     2     0
#> 4     1     2     2     0     1     2     2     1     3     2     0     2
#> 5     3     1     3     2     3     1     3     1     0     0     1     0
#> 6     3     2     3     2     1     2     0     3     3     2     0     1
#> # ℹ 94 more rows
#> # ℹ 11 more variables: a6 <dbl>, a7 <dbl>, e1 <dbl>, e2 <dbl>, e3 <dbl>, …
…
Você pode usar a função distinct() para ver quais categorias estão presentes na variável

−+

02:00

Resposta

starwars |> 
  mutate(
    species_dic = case_when(species == "Human" ~ "humano",
                            .default = "Não humano"),
    .after = species
  )
#> # A tibble: 87 × 15
#>   name           height  mass hair_color  skin_color  eye_color birth_year
#>   <chr>           <int> <dbl> <chr>       <chr>       <chr>          <dbl>
#> 1 Luke Skywalker    172    77 blond       fair        blue            19  
#> 2 C-3PO             167    75 <NA>        gold        yellow         112  
#> 3 R2-D2              96    32 <NA>        white, blue red             33  
#> 4 Darth Vader       202   136 none        white       yellow          41.9
#> 5 Leia Organa       150    49 brown       light       brown           19  
#> 6 Owen Lars         178   120 brown, grey light       blue            52  
#> # ℹ 81 more rows
#> # ℹ 8 more variables: sex <chr>, gender <chr>, homeworld <chr>, …

Exercicio

−+

03:00

No banco de dados gss_cat recodifique a variável relig de modo que só restem três categorias “cristãos”, “não cristãos” e “indefinido”

Resposta

Análise das categorias da variável
Recodificação das categorias

#> # A tibble: 15 × 1
#>   relig             
#>   <fct>             
#> 1 Protestant        
#> 2 Orthodox-christian
#> 3 None              
#> 4 Christian         
#> 5 Jewish            
#> 6 Catholic          
#> # ℹ 9 more rows

#> # A tibble: 21,483 × 9
#>    year marital         age race  rincome        partyid          relig      
#>   <int> <fct>         <int> <fct> <fct>          <fct>            <chr>      
#> 1  2000 Never married    26 White $8000 to 9999  Ind,near rep     cristão    
#> 2  2000 Divorced         48 White $8000 to 9999  Not str republi… cristão    
#> 3  2000 Widowed          67 White Not applicable Independent      cristão    
#> 4  2000 Never married    39 White Not applicable Ind,near rep     cristão    
#> 5  2000 Divorced         25 White Not applicable Not str democrat não cristão
#> 6  2000 Married          25 White $20000 - 24999 Strong democrat  cristão    
#> # ℹ 21,477 more rows
#> # ℹ 2 more variables: denom <fct>, tvhours <int>
…
Variável contínua em categórica

Avaliação qualitativa de escalas de rastreio (SRQ-20, DASS-21 etc.)

Criação de faixas de idade, renda, dentre outras

Avaliação qualitativa de medidas em geral que tem pontos de corte

acompanhamento_nutri: importação do banco

acompanhamento_nutri <- read_csv("https://tinyurl.com/ac-nutri")

acompanhamento_nutri
#> # A tibble: 9 × 4
#>   genero    idade   imc frequencia_treino
#>   <chr>     <dbl> <dbl>             <dbl>
#> 1 Masculino    19  22.3                 4
#> 2 Feminino     45  27.8                 3
#> 3 Masculino    70  32.1                 1
#> 4 Feminino     30  19.6                 6
#> 5 Masculino    20  16.5                 2
#> 6 Feminino     55  29.7                 5
#> # ℹ 3 more rows
…
acima de 65
velhice

Criação da variável: idade_fases

case_acompanhamento_nutri <- acompanhamento_nutri |>
  mutate(
    idade_corte = case_when(idade <= 20 ~ "adolescente",
                            idade >= 21 & idade <= 65 ~ "adulto",
                            idade > 65 ~ "idoso"),
    .after = idade
  ) 

case_acompanhamento_nutri
#> # A tibble: 9 × 5
#>   genero    idade idade_corte   imc frequencia_treino
#>   <chr>     <dbl> <chr>       <dbl>             <dbl>
#> 1 Masculino    19 adolescente  22.3                 4
#> 2 Feminino     45 adulto       27.8                 3
#> 3 Masculino    70 idoso        32.1                 1
#> 4 Feminino     30 adulto       19.6                 6
#> 5 Masculino    20 adolescente  16.5                 2
#> 6 Feminino     55 adulto       29.7                 5
#> # ℹ 3 more rows

Variável contínua em categórica: cut()

right = T (padrão): inclui o valor indicado no ponto de corte (<= 20, <= 65)

cut_acompanhamento_nutri <- acompanhamento_nutri |> 
  mutate(
    idade_corte = cut(idade, breaks = c(-Inf, 20, 65, +Inf),
                      labels = c("adolescente", "adulto", "idoso"),
                      right = T),
    .after = idade
  ) 

cut_acompanhamento_nutri
#> # A tibble: 9 × 5
#>   genero    idade idade_corte   imc frequencia_treino
#>   <chr>     <dbl> <fct>       <dbl>             <dbl>
#> 1 Masculino    19 adolescente  22.3                 4
#> 2 Feminino     45 adulto       27.8                 3
#> 3 Masculino    70 idoso        32.1                 1
#> 4 Feminino     30 adulto       19.6                 6
#> 5 Masculino    20 adolescente  16.5                 2
#> 6 Feminino     55 adulto       29.7                 5
#> # ℹ 3 more rows

Comparando os resultados de cut() e case_when()

case_acompanhamento_nutri$idade_corte == cut_acompanhamento_nutri$idade_corte
#> [1] TRUE TRUE TRUE TRUE TRUE TRUE TRUE TRUE TRUE

Comparando os resultados de cut() e case_when()

case_acompanhamento_nutri |> 
  select(idade, idade_corte)
#> # A tibble: 9 × 2
#>   idade idade_corte
#>   <dbl> <chr>      
#> 1    19 adolescente
#> 2    45 adulto     
#> 3    70 idoso      
#> 4    30 adulto     
#> 5    20 adolescente
#> 6    55 adulto     
#> # ℹ 3 more rows

cut_acompanhamento_nutri |> 
  select(idade, idade_corte)
#> # A tibble: 9 × 2
#>   idade idade_corte
#>   <dbl> <fct>      
#> 1    19 adolescente
#> 2    45 adulto     
#> 3    70 idoso      
#> 4    30 adulto     
#> 5    20 adolescente
#> 6    55 adulto     
#> # ℹ 3 more rows
…
Resposta

case_when()
cut()

acompanhamento_nutri <- acompanhamento_nutri |> 
  mutate(
    imc_corte_case_when = case_when(imc < 18.5 ~ "baixo peso",
                                    imc >= 18.5 & imc < 25 ~ "peso adequado",
                                    imc >= 25 & imc < 30 ~ "sobrepeso",
                                    imc >= 30 ~ "obesidade")
  )

acompanhamento_nutri
#> # A tibble: 9 × 5
#>   genero    idade   imc frequencia_treino imc_corte_case_when
#>   <chr>     <dbl> <dbl>             <dbl> <chr>              
#> 1 Masculino    19  22.3                 4 peso adequado      
#> 2 Feminino     45  27.8                 3 sobrepeso          
#> 3 Masculino    70  32.1                 1 obesidade          
#> 4 Feminino     30  19.6                 6 peso adequado      
#> 5 Masculino    20  16.5                 2 baixo peso         
#> 6 Feminino     55  29.7                 5 sobrepeso          
#> # ℹ 3 more rows
…
