Introdução ao R – Pesquisa Quantitativa
…
origin, dest: Origem e destino. Veja o banco de dados airports para metadados adicionais

air_time: quantidade de tempo gasto no ar, em minutos

distance: distância entre aeroportos, em milhas

hour, minute: horário de partida programado dividido em horas e minutos

time_hour: Data e hora programadas do voo como uma data POSIXct. Junto com a origin, pode ser usado para unir dados de voos a dados meteorológicos (veja o banco de dados weather)

nycflights13::flights

flights
#> # A tibble: 336,776 × 19
#>    year month   day dep_time sched_dep_time dep_delay arr_time sched_arr_time
#>   <int> <int> <int>    <int>          <int>     <dbl>    <int>          <int>
#> 1  2013     1     1      517            515         2      830            819
#> 2  2013     1     1      533            529         4      850            830
#> 3  2013     1     1      542            540         2      923            850
#> 4  2013     1     1      544            545        -1     1004           1022
#> 5  2013     1     1      554            600        -6      812            837
#> 6  2013     1     1      554            558        -4      740            728
#> # ℹ 336,770 more rows
#> # ℹ 11 more variables: arr_delay <dbl>, carrier <chr>, flight <int>, …
…
Verbos do dplyr (funções): manipulação de dados

Primeiro argumento: banco de dados

Argumentos subsequentes: quais colunas operar

Nomes das variáveis sem aspas

Saída: novo banco de dados

O Básico do dplyr

filter(mpg, manufacturer == "ford")
#> # A tibble: 25 × 11
#>   manufacturer model          displ  year   cyl trans      drv     cty   hwy
#>   <chr>        <chr>          <dbl> <int> <int> <chr>      <chr> <int> <int>
#> 1 ford         expedition 2wd   4.6  1999     8 auto(l4)   r        11    17
#> 2 ford         expedition 2wd   5.4  1999     8 auto(l4)   r        11    17
#> 3 ford         expedition 2wd   5.4  2008     8 auto(l6)   r        12    18
#> 4 ford         explorer 4wd     4    1999     6 auto(l5)   4        14    17
#> 5 ford         explorer 4wd     4    1999     6 manual(m5) 4        15    19
#> 6 ford         explorer 4wd     4    1999     6 auto(l5)   4        14    17
#> # ℹ 19 more rows
#> # ℹ 2 more variables: fl <chr>, class <chr>

O Básico do dplyr

select(mpg, model)
#> # A tibble: 234 × 1
#>   model
#>   <chr>
#> 1 a4   
#> 2 a4   
#> 3 a4   
#> 4 a4   
#> 5 a4   
#> 6 a4   
#> # ℹ 228 more rows
…
distinct()

filter()

filtra (mantém | deixa passar) linhas baseado em valores das colunas (variáveis)

primeiro argumento: banco de dados

segundo e subsequentes: condições que devem ser verdade para manter a linha (caso)

filter()

flights |> 
  filter(dep_delay > 120)
#> # A tibble: 9,723 × 19
#>    year month   day dep_time sched_dep_time dep_delay arr_time sched_arr_time
#>   <int> <int> <int>    <int>          <int>     <dbl>    <int>          <int>
#> 1  2013     1     1      848           1835       853     1001           1950
#> 2  2013     1     1      957            733       144     1056            853
#> 3  2013     1     1     1114            900       134     1447           1222
#> 4  2013     1     1     1540           1338       122     2020           1825
#> 5  2013     1     1     1815           1325       290     2120           1542
#> 6  2013     1     1     1842           1422       260     1958           1535
#> # ℹ 9,717 more rows
#> # ℹ 11 more variables: arr_delay <dbl>, carrier <chr>, flight <int>, …

Exercício

−+

02:00

No banco de dados mpg, encontre os carros que tem um rendimento na cidade maior do que 17 milhas por galão (cty)

Resposta

mpg |> 
  filter(cty > 17)
#> # A tibble: 102 × 11
#>   manufacturer model displ  year   cyl trans      drv     cty   hwy fl   
#>   <chr>        <chr> <dbl> <int> <int> <chr>      <chr> <int> <int> <chr>
#> 1 audi         a4      1.8  1999     4 auto(l5)   f        18    29 p    
#> 2 audi         a4      1.8  1999     4 manual(m5) f        21    29 p    
#> 3 audi         a4      2    2008     4 manual(m6) f        20    31 p    
#> 4 audi         a4      2    2008     4 auto(av)   f        21    30 p    
#> 5 audi         a4      2.8  1999     6 manual(m5) f        18    26 p    
#> 6 audi         a4      3.1  2008     6 auto(av)   f        18    27 p    
#> # ℹ 96 more rows
#> # ℹ 1 more variable: class <chr>
…
Operadores lógicos

Combinar codições:

& “e” (“verifique ambas as condições”)

, “e” (“verifique ambas as condições”)

| “ou” (“verifique qualquer uma das condições”)

Operadores lógicos

flights |> 
  filter(day == 1 & month == 1)
#> # A tibble: 842 × 19
#>    year month   day dep_time sched_dep_time dep_delay arr_time sched_arr_time
#>   <int> <int> <int>    <int>          <int>     <dbl>    <int>          <int>
#> 1  2013     1     1      517            515         2      830            819
#> 2  2013     1     1      533            529         4      850            830
#> 3  2013     1     1      542            540         2      923            850
#> 4  2013     1     1      544            545        -1     1004           1022
#> 5  2013     1     1      554            600        -6      812            837
#> 6  2013     1     1      554            558        -4      740            728
#> # ℹ 836 more rows
#> # ℹ 11 more variables: arr_delay <dbl>, carrier <chr>, flight <int>, …
…
mpg |> 
  filter(manufacturer == "jeep", cyl == 6)
#> # A tibble: 3 × 11
#>   manufacturer model             displ  year   cyl trans    drv     cty   hwy
#>   <chr>        <chr>             <dbl> <int> <int> <chr>    <chr> <int> <int>
#> 1 jeep         grand cherokee 4…   3    2008     6 auto(l5) 4        17    22
#> 2 jeep         grand cherokee 4…   3.7  2008     6 auto(l5) 4        15    19
#> 3 jeep         grand cherokee 4…   4    1999     6 auto(l4) 4        15    20
#> # ℹ 2 more variables: fl <chr>, class <chr>

Operadores lógicos

flights |> 
  filter(month == 1 | month == 2)
#> # A tibble: 51,955 × 19
#>    year month   day dep_time sched_dep_time dep_delay arr_time sched_arr_time
#>   <int> <int> <int>    <int>          <int>     <dbl>    <int>          <int>
#> 1  2013     1     1      517            515         2      830            819
#> 2  2013     1     1      533            529         4      850            830
#> 3  2013     1     1      542            540         2      923            850
#> 4  2013     1     1      544            545        -1     1004           1022
#> 5  2013     1     1      554            600        -6      812            837
#> 6  2013     1     1      554            558        -4      740            728
#> # ℹ 51,949 more rows
#> # ℹ 11 more variables: arr_delay <dbl>, carrier <chr>, flight <int>, …

Operadores lógicos

# jução do `==` e do `|`

flights |> 
  filter(month %in% c(1,2))
#> # A tibble: 51,955 × 19
#>    year month   day dep_time sched_dep_time dep_delay arr_time sched_arr_time
#>   <int> <int> <int>    <int>          <int>     <dbl>    <int>          <int>
#> 1  2013     1     1      517            515         2      830            819
#> 2  2013     1     1      533            529         4      850            830
#> 3  2013     1     1      542            540         2      923            850
#> 4  2013     1     1      544            545        -1     1004           1022
#> 5  2013     1     1      554            600        -6      812            837
#> 6  2013     1     1      554            558        -4      740            728
#> # ℹ 51,949 more rows
#> # ℹ 11 more variables: arr_delay <dbl>, carrier <chr>, flight <int>, …

Operadores lógicos

# jução do `==` e do `|`

flights |> 
  filter(month %in% c(1,2,6,11))
#> # A tibble: 107,466 × 19
#>    year month   day dep_time sched_dep_time dep_delay arr_time sched_arr_time
#>   <int> <int> <int>    <int>          <int>     <dbl>    <int>          <int>
#> 1  2013     1     1      517            515         2      830            819
#> 2  2013     1     1      533            529         4      850            830
#> 3  2013     1     1      542            540         2      923            850
#> 4  2013     1     1      544            545        -1     1004           1022
#> 5  2013     1     1      554            600        -6      812            837
#> 6  2013     1     1      554            558        -4      740            728
#> # ℹ 107,460 more rows
#> # ℹ 11 more variables: arr_delay <dbl>, carrier <chr>, flight <int>, …

Exercício

−+

02:00

No banco de dados mpg, localize os carros que tem 6 ou 8 cilindors (cyl)

Resposta

mpg |> 
  filter(cyl == 6 | cyl == 8)
#> # A tibble: 149 × 11
#>   manufacturer model      displ  year   cyl trans      drv     cty   hwy
#>   <chr>        <chr>      <dbl> <int> <int> <chr>      <chr> <int> <int>
#> 1 audi         a4           2.8  1999     6 auto(l5)   f        16    26
#> 2 audi         a4           2.8  1999     6 manual(m5) f        18    26
#> 3 audi         a4           3.1  2008     6 auto(av)   f        18    27
#> 4 audi         a4 quattro   2.8  1999     6 auto(l5)   4        15    25
#> 5 audi         a4 quattro   2.8  1999     6 manual(m5) 4        17    25
#> 6 audi         a4 quattro   3.1  2008     6 auto(s6)   4        17    25
#> # ℹ 143 more rows
#> # ℹ 2 more variables: fl <chr>, class <chr>

Resposta

mpg |> 
  filter(cyl %in% c(6,8))
#> # A tibble: 149 × 11
#>   manufacturer model      displ  year   cyl trans      drv     cty   hwy
#>   <chr>        <chr>      <dbl> <int> <int> <chr>      <chr> <int> <int>
#> 1 audi         a4           2.8  1999     6 auto(l5)   f        16    26
#> 2 audi         a4           2.8  1999     6 manual(m5) f        18    26
#> 3 audi         a4           3.1  2008     6 auto(av)   f        18    27
#> 4 audi         a4 quattro   2.8  1999     6 auto(l5)   4        15    25
#> 5 audi         a4 quattro   2.8  1999     6 manual(m5) 4        17    25
#> 6 audi         a4 quattro   3.1  2008     6 auto(s6)   4        17    25
#> # ℹ 143 more rows
#> # ℹ 2 more variables: fl <chr>, class <chr>

Exercício

No banco de dados mpg, ache os carros que foram fabricados (manufacturer) pelas marcas honda, nissan ou toyota

Resposta

mpg |> 
  filter(manufacturer %in% c("honda", "nissan", "toyota"))
#> # A tibble: 56 × 11
#>   manufacturer model displ  year   cyl trans      drv     cty   hwy fl   
#>   <chr>        <chr> <dbl> <int> <int> <chr>      <chr> <int> <int> <chr>
#> 1 honda        civic   1.6  1999     4 manual(m5) f        28    33 r    
#> 2 honda        civic   1.6  1999     4 auto(l4)   f        24    32 r    
#> 3 honda        civic   1.6  1999     4 manual(m5) f        25    32 r    
#> 4 honda        civic   1.6  1999     4 manual(m5) f        23    29 p    
#> 5 honda        civic   1.6  1999     4 auto(l4)   f        24    32 r    
#> 6 honda        civic   1.8  2008     4 manual(m5) f        26    34 r    
#> # ℹ 50 more rows
#> # ℹ 1 more variable: class <chr>

Resposta

mpg |> 
  filter(manufacturer == "honda" | manufacturer == "nissan" | manufacturer == "toyota")
#> # A tibble: 56 × 11
#>   manufacturer model displ  year   cyl trans      drv     cty   hwy fl   
#>   <chr>        <chr> <dbl> <int> <int> <chr>      <chr> <int> <int> <chr>
#> 1 honda        civic   1.6  1999     4 manual(m5) f        28    33 r    
#> 2 honda        civic   1.6  1999     4 auto(l4)   f        24    32 r    
#> 3 honda        civic   1.6  1999     4 manual(m5) f        25    32 r    
#> 4 honda        civic   1.6  1999     4 manual(m5) f        23    29 p    
#> 5 honda        civic   1.6  1999     4 auto(l4)   f        24    32 r    
#> 6 honda        civic   1.8  2008     4 manual(m5) f        26    34 r    
#> # ℹ 50 more rows
#> # ℹ 1 more variable: class <chr>
filter()

Nunca altera o banco de dados original

É criado um novo banco de dados

Para salvar o novo banco de dados, use o operador de atribuição <-

filter()

jan1 <- flights |> 
  filter(month == 1, day == 1)

jan1
#> # A tibble: 842 × 19
#>    year month   day dep_time sched_dep_time dep_delay arr_time sched_arr_time
#>   <int> <int> <int>    <int>          <int>     <dbl>    <int>          <int>
#> 1  2013     1     1      517            515         2      830            819
#> 2  2013     1     1      533            529         4      850            830
#> 3  2013     1     1      542            540         2      923            850
#> 4  2013     1     1      544            545        -1     1004           1022
#> 5  2013     1     1      554            600        -6      812            837
#> 6  2013     1     1      554            558        -4      740            728
#> # ℹ 836 more rows
#> # ℹ 11 more variables: arr_delay <dbl>, carrier <chr>, flight <int>, …
Exercício

−+

02:00

A partir do banco de dados mpg, salve um novo banco de dados chamado ford com todos os carros fabricados (manufacturer) por esta marca.

Resposta

ford <- mpg |> 
  filter(manufacturer == "ford")

ford
#> # A tibble: 25 × 11
#>   manufacturer model          displ  year   cyl trans      drv     cty   hwy
#>   <chr>        <chr>          <dbl> <int> <int> <chr>      <chr> <int> <int>
#> 1 ford         expedition 2wd   4.6  1999     8 auto(l4)   r        11    17
#> 2 ford         expedition 2wd   5.4  1999     8 auto(l4)   r        11    17
#> 3 ford         expedition 2wd   5.4  2008     8 auto(l6)   r        12    18
#> 4 ford         explorer 4wd     4    1999     6 auto(l5)   4        14    17
#> 5 ford         explorer 4wd     4    1999     6 manual(m5) 4        15    19
#> 6 ford         explorer 4wd     4    1999     6 auto(l5)   4        14    17
#> # ℹ 19 more rows
#> # ℹ 2 more variables: fl <chr>, class <chr>

arrange()

Muda a ordem das linhas baseado nos valores das colunas

Sem ordem
Atraso na partida

flights  
#> # A tibble: 336,776 × 19
#>    year month   day dep_time sched_dep_time dep_delay arr_time sched_arr_time
#>   <int> <int> <int>    <int>          <int>     <dbl>    <int>          <int>
#> 1  2013     1     1      517            515         2      830            819
#> 2  2013     1     1      533            529         4      850            830
#> 3  2013     1     1      542            540         2      923            850
#> 4  2013     1     1      544            545        -1     1004           1022
#> 5  2013     1     1      554            600        -6      812            837
#> 6  2013     1     1      554            558        -4      740            728
#> # ℹ 336,770 more rows
#> # ℹ 11 more variables: arr_delay <dbl>, carrier <chr>, flight <int>, …

flights |> 
  arrange(dep_delay)
#> # A tibble: 336,776 × 19
#>    year month   day dep_time sched_dep_time dep_delay arr_time sched_arr_time
#>   <int> <int> <int>    <int>          <int>     <dbl>    <int>          <int>
#> 1  2013    12     7     2040           2123       -43       40           2352
#> 2  2013     2     3     2022           2055       -33     2240           2338
#> 3  2013    11    10     1408           1440       -32     1549           1559
#> 4  2013     1    11     1900           1930       -30     2233           2243
#> 5  2013     1    29     1703           1730       -27     1947           1957
#> 6  2013     8     9      729            755       -26     1002            955
#> # ℹ 336,770 more rows
#> # ℹ 11 more variables: arr_delay <dbl>, carrier <chr>, flight <int>, …

arrange()

Mais de um nome de coluna

Cada coluna adicional desempata os valores das colunas anteriores

flights |> 
  arrange(dep_delay, arr_time)
#> # A tibble: 336,776 × 19
#>    year month   day dep_time sched_dep_time dep_delay arr_time sched_arr_time
#>   <int> <int> <int>    <int>          <int>     <dbl>    <int>          <int>
#> 1  2013    12     7     2040           2123       -43       40           2352
#> 2  2013     2     3     2022           2055       -33     2240           2338
#> 3  2013    11    10     1408           1440       -32     1549           1559
#> 4  2013     1    11     1900           1930       -30     2233           2243
#> 5  2013     1    29     1703           1730       -27     1947           1957
#> 6  2013     8     9      729            755       -26     1002            955
#> # ℹ 336,770 more rows
#> # ℹ 11 more variables: arr_delay <dbl>, carrier <chr>, flight <int>, …

arrange()

Para ver do maior pro menor: desc()

flights |> 
  arrange(desc(dep_delay))
#> # A tibble: 336,776 × 19
#>    year month   day dep_time sched_dep_time dep_delay arr_time sched_arr_time
#>   <int> <int> <int>    <int>          <int>     <dbl>    <int>          <int>
#> 1  2013     1     9      641            900      1301     1242           1530
#> 2  2013     6    15     1432           1935      1137     1607           2120
#> 3  2013     1    10     1121           1635      1126     1239           1810
#> 4  2013     9    20     1139           1845      1014     1457           2210
#> 5  2013     7    22      845           1600      1005     1044           1815
#> 6  2013     4    10     1100           1900       960     1342           2211
#> # ℹ 336,770 more rows
#> # ℹ 11 more variables: arr_delay <dbl>, carrier <chr>, flight <int>, …

Exercício

−+

02:00

No banco mpg, identifique o modelo com pior rendimento na cidade (cty)

Resposta

mpg |> 
  arrange(cty)
#> # A tibble: 234 × 11
#>   manufacturer model           displ  year   cyl trans      drv     cty   hwy
#>   <chr>        <chr>           <dbl> <int> <int> <chr>      <chr> <int> <int>
#> 1 dodge        dakota pickup …   4.7  2008     8 auto(l5)   4         9    12
#> 2 dodge        durango 4wd       4.7  2008     8 auto(l5)   4         9    12
#> 3 dodge        ram 1500 picku…   4.7  2008     8 auto(l5)   4         9    12
#> 4 dodge        ram 1500 picku…   4.7  2008     8 manual(m6) 4         9    12
#> 5 jeep         grand cherokee…   4.7  2008     8 auto(l5)   4         9    12
#> 6 chevrolet    c1500 suburban…   5.3  2008     8 auto(l4)   r        11    15
#> # ℹ 228 more rows
#> # ℹ 2 more variables: fl <chr>, class <chr>

Exercício

−+

02:00

No banco mpg, encontre o modelo com melhor rendimento na estrada (hwy)

Resposta

mpg |> 
  arrange(desc(hwy))
#> # A tibble: 234 × 11
#>   manufacturer model      displ  year   cyl trans      drv     cty   hwy
#>   <chr>        <chr>      <dbl> <int> <int> <chr>      <chr> <int> <int>
#> 1 volkswagen   jetta        1.9  1999     4 manual(m5) f        33    44
#> 2 volkswagen   new beetle   1.9  1999     4 manual(m5) f        35    44
#> 3 volkswagen   new beetle   1.9  1999     4 auto(l4)   f        29    41
#> 4 toyota       corolla      1.8  2008     4 manual(m5) f        28    37
#> 5 honda        civic        1.8  2008     4 auto(l5)   f        25    36
#> 6 honda        civic        1.8  2008     4 auto(l5)   f        24    36
#> # ℹ 228 more rows
#> # ℹ 2 more variables: fl <chr>, class <chr>

Exercício

−+

02:00

No banco mpg, ache o carro da marca ford (manufacturer) com melhor rendimento na cidade (cty)

Resposta

mpg |> 
  filter(manufacturer == "ford") |> 
  arrange(desc(cty))
#> # A tibble: 25 × 11
#>   manufacturer model        displ  year   cyl trans      drv     cty   hwy
#>   <chr>        <chr>        <dbl> <int> <int> <chr>      <chr> <int> <int>
#> 1 ford         mustang        3.8  1999     6 manual(m5) r        18    26
#> 2 ford         mustang        3.8  1999     6 auto(l4)   r        18    25
#> 3 ford         mustang        4    2008     6 manual(m5) r        17    26
#> 4 ford         mustang        4    2008     6 auto(l5)   r        16    24
#> 5 ford         explorer 4wd   4    1999     6 manual(m5) 4        15    19
#> 6 ford         mustang        4.6  1999     8 auto(l4)   r        15    21
#> # ℹ 19 more rows
#> # ℹ 2 more variables: fl <chr>, class <chr>
…
